SystemVerilogBrightness/simulation/modelsim/msim_transcript
# Reading pref.tcl
# do BrightnessFilter_run_msim_rtl_verilog.do
# if {[file exists rtl_work]} {
# 	vdel -lib rtl_work -all
# }
# vlib rtl_work
# vmap work rtl_work
# Model Technology ModelSim - Intel FPGA Edition vmap 2020.1 Lib Mapping Utility 2020.02 Feb 28 2020
# vmap work rtl_work 
# Copying C:/intelFPGA_lite/20.1/modelsim_ase/win32aloem/../modelsim.ini to modelsim.ini
# Modifying modelsim.ini
# 
# vlog -sv -work work +incdir+C:/Users/Daniel/Desktop/Arqui2ProyectoRepositorio/Systolic_Array_GaussianFilter/SystemVerilogBrightness {C:/Users/Daniel/Desktop/Arqui2ProyectoRepositorio/Systolic_Array_GaussianFilter/SystemVerilogBrightness/TPU.sv}
# Model Technology ModelSim - Intel FPGA Edition vlog 2020.1 Compiler 2020.02 Feb 28 2020
# Start time: 22:30:57 on Jun 20,2025
# vlog -reportprogress 300 -sv -work work "+incdir+C:/Users/Daniel/Desktop/Arqui2ProyectoRepositorio/Systolic_Array_GaussianFilter/SystemVerilogBrightness" C:/Users/Daniel/Desktop/Arqui2ProyectoRepositorio/Systolic_Array_GaussianFilter/SystemVerilogBrightness/TPU.sv 
# -- Compiling module TPU
# 
# Top level modules:
# 	TPU
# End time: 22:30:57 on Jun 20,2025, Elapsed time: 0:00:00
# Errors: 0, Warnings: 0
# vlog -sv -work work +incdir+C:/Users/Daniel/Desktop/Arqui2ProyectoRepositorio/Systolic_Array_GaussianFilter/SystemVerilogBrightness {C:/Users/Daniel/Desktop/Arqui2ProyectoRepositorio/Systolic_Array_GaussianFilter/SystemVerilogBrightness/MAC_module.sv}
# Model Technology ModelSim - Intel FPGA Edition vlog 2020.1 Compiler 2020.02 Feb 28 2020
# Start time: 22:30:57 on Jun 20,2025
# vlog -reportprogress 300 -sv -work work "+incdir+C:/Users/Daniel/Desktop/Arqui2ProyectoRepositorio/Systolic_Array_GaussianFilter/SystemVerilogBrightness" C:/Users/Daniel/Desktop/Arqui2ProyectoRepositorio/Systolic_Array_GaussianFilter/SystemVerilogBrightness/MAC_module.sv 
# -- Compiling module MAC
# 
# Top level modules:
# 	MAC
# End time: 22:30:57 on Jun 20,2025, Elapsed time: 0:00:00
# Errors: 0, Warnings: 0
# vlog -sv -work work +incdir+C:/Users/Daniel/Desktop/Arqui2ProyectoRepositorio/Systolic_Array_GaussianFilter/SystemVerilogBrightness {C:/Users/Daniel/Desktop/Arqui2ProyectoRepositorio/Systolic_Array_GaussianFilter/SystemVerilogBrightness/Normalizer.sv}
# Model Technology ModelSim - Intel FPGA Edition vlog 2020.1 Compiler 2020.02 Feb 28 2020
# Start time: 22:30:57 on Jun 20,2025
# vlog -reportprogress 300 -sv -work work "+incdir+C:/Users/Daniel/Desktop/Arqui2ProyectoRepositorio/Systolic_Array_GaussianFilter/SystemVerilogBrightness" C:/Users/Daniel/Desktop/Arqui2ProyectoRepositorio/Systolic_Array_GaussianFilter/SystemVerilogBrightness/Normalizer.sv 
# -- Compiling module Normalizer
# 
# Top level modules:
# 	Normalizer
# End time: 22:30:57 on Jun 20,2025, Elapsed time: 0:00:00
# Errors: 0, Warnings: 0
# 
# vlog -sv -work work +incdir+C:/Users/Daniel/Desktop/Arqui2ProyectoRepositorio/Systolic_Array_GaussianFilter/SystemVerilogBrightness {C:/Users/Daniel/Desktop/Arqui2ProyectoRepositorio/Systolic_Array_GaussianFilter/SystemVerilogBrightness/MMU_diagonalzeros_tb.sv}
# Model Technology ModelSim - Intel FPGA Edition vlog 2020.1 Compiler 2020.02 Feb 28 2020
# Start time: 22:30:57 on Jun 20,2025
# vlog -reportprogress 300 -sv -work work "+incdir+C:/Users/Daniel/Desktop/Arqui2ProyectoRepositorio/Systolic_Array_GaussianFilter/SystemVerilogBrightness" C:/Users/Daniel/Desktop/Arqui2ProyectoRepositorio/Systolic_Array_GaussianFilter/SystemVerilogBrightness/MMU_diagonalzeros_tb.sv 
# -- Compiling module MMU_diagonalzeros_tb
# 
# Top level modules:
# 	MMU_diagonalzeros_tb
# End time: 22:30:57 on Jun 20,2025, Elapsed time: 0:00:00
# Errors: 0, Warnings: 0
# 
# vsim -t 1ps -L altera_ver -L lpm_ver -L sgate_ver -L altera_mf_ver -L altera_lnsim_ver -L cyclonev_ver -L cyclonev_hssi_ver -L cyclonev_pcie_hip_ver -L rtl_work -L work -voptargs="+acc"  MMU_diagonalzeros_tb
# vsim -t 1ps -L altera_ver -L lpm_ver -L sgate_ver -L altera_mf_ver -L altera_lnsim_ver -L cyclonev_ver -L cyclonev_hssi_ver -L cyclonev_pcie_hip_ver -L rtl_work -L work -voptargs=""+acc"" MMU_diagonalzeros_tb 
# Start time: 22:30:57 on Jun 20,2025
# Loading sv_std.std
# Loading work.MMU_diagonalzeros_tb
# Loading work.TPU
# Loading work.Normalizer
# Loading work.MAC
# ** Warning: (vsim-3015) [PCDPC] - Port size (16) does not match connection size (8) for port 'pe30_norm_out'. The port definition is at: C:/Users/Daniel/Desktop/Arqui2ProyectoRepositorio/Systolic_Array_GaussianFilter/SystemVerilogBrightness/TPU.sv(16).
#    Time: 0 ps  Iteration: 0  Instance: /MMU_diagonalzeros_tb/uut File: C:/Users/Daniel/Desktop/Arqui2ProyectoRepositorio/Systolic_Array_GaussianFilter/SystemVerilogBrightness/MMU_diagonalzeros_tb.sv Line: 28
# ** Warning: (vsim-3015) [PCDPC] - Port size (16) does not match connection size (8) for port 'pe31_norm_out'. The port definition is at: C:/Users/Daniel/Desktop/Arqui2ProyectoRepositorio/Systolic_Array_GaussianFilter/SystemVerilogBrightness/TPU.sv(16).
#    Time: 0 ps  Iteration: 0  Instance: /MMU_diagonalzeros_tb/uut File: C:/Users/Daniel/Desktop/Arqui2ProyectoRepositorio/Systolic_Array_GaussianFilter/SystemVerilogBrightness/MMU_diagonalzeros_tb.sv Line: 28
# ** Warning: (vsim-3015) [PCDPC] - Port size (16) does not match connection size (8) for port 'pe32_norm_out'. The port definition is at: C:/Users/Daniel/Desktop/Arqui2ProyectoRepositorio/Systolic_Array_GaussianFilter/SystemVerilogBrightness/TPU.sv(16).
#    Time: 0 ps  Iteration: 0  Instance: /MMU_diagonalzeros_tb/uut File: C:/Users/Daniel/Desktop/Arqui2ProyectoRepositorio/Systolic_Array_GaussianFilter/SystemVerilogBrightness/MMU_diagonalzeros_tb.sv Line: 28
# ** Warning: (vsim-3015) [PCDPC] - Port size (16) does not match connection size (8) for port 'pe33_norm_out'. The port definition is at: C:/Users/Daniel/Desktop/Arqui2ProyectoRepositorio/Systolic_Array_GaussianFilter/SystemVerilogBrightness/TPU.sv(16).
#    Time: 0 ps  Iteration: 0  Instance: /MMU_diagonalzeros_tb/uut File: C:/Users/Daniel/Desktop/Arqui2ProyectoRepositorio/Systolic_Array_GaussianFilter/SystemVerilogBrightness/MMU_diagonalzeros_tb.sv Line: 28
# 
# add wave *
# ** Warning: (vsim-WLF-5000) WLF file currently in use: vsim.wlf
#           File in use by: njohn  Hostname: NAHEEM  ProcessID: 43544
#           Attempting to use alternate WLF file "./wlftwndek7".
# ** Warning: (vsim-WLF-5001) Could not open WLF file: vsim.wlf
#           Using alternate file: ./wlftwndek7
# view structure
# .main_pane.structure.interior.cs.body.struct
# view signals
# .main_pane.objects.interior.cs.body.tree
# run -all
# 
# === FASE 1: CARGA DE PESOS ===
# 
# Pesos en los PEs (T=750000):
#         Col0        Col1        Col2        Col3
# Fila          0:  xxxx        xxxx        xxxx        xxxx
# Fila          1:  xxxx        xxxx        xxxx        xxxx
# Fila          2:  xxxx        xxxx        xxxx        xxxx
# Fila          3:  xxxx        xxxx        xxxx        xxxx
# 
# Pesos en los PEs (T=1250000):
#         Col0        Col1        Col2        Col3
# Fila          0:  0000        0000        0000        0000
# Fila          1:  xxxx        xxxx        xxxx        xxxx
# Fila          2:  xxxx        xxxx        xxxx        xxxx
# Fila          3:  xxxx        xxxx        xxxx        xxxx
# 
# Pesos en los PEs (T=1750000):
#         Col0        Col1        Col2        Col3
# Fila          0:  0000        0000        0000        0002
# Fila          1:  0000        0000        0000        0000
# Fila          2:  xxxx        xxxx        xxxx        xxxx
# Fila          3:  xxxx        xxxx        xxxx        xxxx
# 
# Pesos en los PEs (T=2250000):
#         Col0        Col1        Col2        Col3
# Fila          0:  0000        0000        0002        0000
# Fila          1:  0000        0000        0000        0002
# Fila          2:  0000        0000        0000        0000
# Fila          3:  xxxx        xxxx        xxxx        xxxx
# 
# Pesos finales cargados:
# 
# Pesos en los PEs (T=3250000):
#         Col0        Col1        Col2        Col3
# Fila          0:  0002        0000        0000        0000
# Fila          1:  0000        0002        0000        0000
# Fila          2:  0000        0000        0002        0000
# Fila          3:  0000        0000        0000        0002
# 
# === FASE 2: CARGA DE DATOS (PATRÓN DIAGONAL) ===
# 
# Pesos en los PEs (T=3250000):
#         Col0        Col1        Col2        Col3
# Fila          0:  0002        0000        0000        0000
# Fila          1:  0000        0002        0000        0000
# Fila          2:  0000        0000        0002        0000
# Fila          3:  0000        0000        0000        0002
# 
# Flujo de Datos (T=3750000):
#         Col0               Col1               Col2               Col3
# Fila          0:  in:0000/out:0000  in:0000/out:0000  in:0000/out:0000  in:0000/out:0000
# Fila          1:  in:0000/out:0000  in:0000/out:0000  in:0000/out:0000  in:0000/out:0000
# Fila          2:  in:0000/out:0000  in:0000/out:0000  in:0000/out:0000  in:0000/out:0000
# Fila          3:  in:0000/out:0000  in:0000/out:0000  in:0000/out:0000  in:0000/out:0000
# 
# Pesos en los PEs (T=3750000):
#         Col0        Col1        Col2        Col3
# Fila          0:  0002        0000        0000        0000
# Fila          1:  0000        0002        0000        0000
# Fila          2:  0000        0000        0002        0000
# Fila          3:  0000        0000        0000        0002
# 
# Flujo de Datos (T=4250000):
#         Col0               Col1               Col2               Col3
# Fila          0:  in:0000/out:0000  in:0000/out:0000  in:0000/out:0000  in:0000/out:0000
# Fila          1:  in:xxxx/out:0000  in:0000/out:0000  in:0000/out:0000  in:0000/out:0000
# Fila          2:  in:xxxx/out:0000  in:0000/out:0000  in:0000/out:0000  in:0000/out:0000
# Fila          3:  in:xxxx/out:0000  in:0000/out:0000  in:0000/out:0000  in:0000/out:0000
# 
# Flujo de Datos (T=4750000):
#         Col0               Col1               Col2               Col3
# Fila          0:  in:0000/out:0000  in:0000/out:0000  in:0000/out:0000  in:0000/out:0000
# Fila          1:  in:0000/out:xxxx  in:xxxx/out:0000  in:0000/out:0000  in:0000/out:0000
# Fila          2:  in:xxxx/out:xxxx  in:xxxx/out:0000  in:0000/out:0000  in:0000/out:0000
# Fila          3:  in:xxxx/out:xxxx  in:xxxx/out:0000  in:0000/out:0000  in:0000/out:0000
# 
# Flujo de Datos (T=5250000):
#         Col0               Col1               Col2               Col3
# Fila          0:  in:0000/out:0000  in:0000/out:0000  in:0000/out:0000  in:0000/out:0000
# Fila          1:  in:0000/out:0000  in:0000/out:xxxx  in:xxxx/out:0000  in:0000/out:0000
# Fila          2:  in:0000/out:xxxx  in:xxxx/out:xxxx  in:xxxx/out:0000  in:0000/out:0000
# Fila          3:  in:xxxx/out:xxxx  in:xxxx/out:xxxx  in:xxxx/out:0000  in:0000/out:0000
# 
# Flujo de Datos (T=5750000):
#         Col0               Col1               Col2               Col3
# Fila          0:  in:0000/out:0000  in:0000/out:0000  in:0000/out:0000  in:0000/out:0000
# Fila          1:  in:0000/out:0000  in:0000/out:0000  in:0000/out:xxxx  in:xxxx/out:0000
# Fila          2:  in:0000/out:0000  in:0000/out:xxxx  in:xxxx/out:xxxx  in:xxxx/out:0000
# Fila          3:  in:0000/out:xxxx  in:xxxx/out:xxxx  in:xxxx/out:xxxx  in:xxxx/out:0000
# 
# Flujo de Datos (T=6250000):
#         Col0               Col1               Col2               Col3
# Fila          0:  in:0000/out:0000  in:0000/out:0000  in:0000/out:0000  in:0000/out:0000
# Fila          1:  in:0001/out:0000  in:0000/out:0000  in:0000/out:0000  in:0000/out:xxxx
# Fila          2:  in:0002/out:0000  in:0000/out:0000  in:0000/out:xxxx  in:xxxx/out:xxxx
# Fila          3:  in:0003/out:0000  in:0000/out:xxxx  in:xxxx/out:xxxx  in:xxxx/out:xxxx
# 
# Flujo de Datos (T=6750000):
#         Col0               Col1               Col2               Col3
# Fila          0:  in:0004/out:0000  in:0000/out:0000  in:0000/out:0000  in:0000/out:0000
# Fila          1:  in:0005/out:0001  in:0001/out:0000  in:0000/out:0000  in:0000/out:0000
# Fila          2:  in:0006/out:0002  in:0002/out:0000  in:0000/out:0000  in:0000/out:xxxx
# Fila          3:  in:0007/out:0003  in:0003/out:0000  in:0000/out:xxxx  in:xxxx/out:xxxx
# 
# Flujo de Datos (T=7250000):
#         Col0               Col1               Col2               Col3
# Fila          0:  in:0008/out:0004  in:0004/out:0000  in:0000/out:0000  in:0000/out:0000
# Fila          1:  in:0009/out:0005  in:0005/out:0001  in:0001/out:0000  in:0000/out:0000
# Fila          2:  in:000a/out:0006  in:0006/out:0002  in:0002/out:0000  in:0000/out:0000
# Fila          3:  in:000b/out:0007  in:0007/out:0003  in:0003/out:0000  in:0000/out:xxxx
# 
# Flujo de Datos (T=7750000):
#         Col0               Col1               Col2               Col3
# Fila          0:  in:000c/out:0008  in:0008/out:0004  in:0004/out:0000  in:0000/out:0000
# Fila          1:  in:000d/out:0009  in:0009/out:0005  in:0005/out:0001  in:0001/out:0000
# Fila          2:  in:000e/out:000a  in:000a/out:0006  in:0006/out:0002  in:0002/out:0000
# Fila          3:  in:000f/out:000b  in:000b/out:0007  in:0007/out:0003  in:0003/out:0000
# 
# Flujo de Datos (T=8250000):
#         Col0               Col1               Col2               Col3
# Fila          0:  in:0000/out:000c  in:000c/out:0008  in:0008/out:0004  in:0004/out:0000
# Fila          1:  in:0000/out:000d  in:000d/out:0009  in:0009/out:0005  in:0005/out:0001
# Fila          2:  in:0000/out:000e  in:000e/out:000a  in:000a/out:0006  in:0006/out:0002
# Fila          3:  in:0000/out:000f  in:000f/out:000b  in:000b/out:0007  in:0007/out:0003
# 
# Flujo de Datos (T=8750000):
#         Col0               Col1               Col2               Col3
# Fila          0:  in:xxxx/out:0000  in:0000/out:000c  in:000c/out:0008  in:0008/out:0004
# Fila          1:  in:0000/out:0000  in:0000/out:000d  in:000d/out:0009  in:0009/out:0005
# Fila          2:  in:0000/out:0000  in:0000/out:000e  in:000e/out:000a  in:000a/out:0006
# Fila          3:  in:0000/out:0000  in:0000/out:000f  in:000f/out:000b  in:000b/out:0007
# 
# Flujo de Datos (T=9250000):
#         Col0               Col1               Col2               Col3
# Fila          0:  in:xxxx/out:xxxx  in:xxxx/out:0000  in:0000/out:000c  in:000c/out:0008
# Fila          1:  in:xxxx/out:0000  in:0000/out:0000  in:0000/out:000d  in:000d/out:0009
# Fila          2:  in:0000/out:0000  in:0000/out:0000  in:0000/out:000e  in:000e/out:000a
# Fila          3:  in:0000/out:0000  in:0000/out:0000  in:0000/out:000f  in:000f/out:000b
# 
# Flujo de Datos (T=9750000):
#         Col0               Col1               Col2               Col3
# Fila          0:  in:xxxx/out:xxxx  in:xxxx/out:xxxx  in:xxxx/out:0000  in:0000/out:000c
# Fila          1:  in:xxxx/out:xxxx  in:xxxx/out:0000  in:0000/out:0000  in:0000/out:000d
# Fila          2:  in:xxxx/out:0000  in:0000/out:0000  in:0000/out:0000  in:0000/out:000e
# Fila          3:  in:0000/out:0000  in:0000/out:0000  in:0000/out:0000  in:0000/out:000f
# 
# Resultados Acumulados (T=9750000):
# PE(3,0) = 0000000018 (dec 24)
# PE(3,1) = 000000001a (dec 26)
# PE(3,2) = 000000001c (dec 28)
# PE(3,3) = 000000001e (dec 30)
# 
# Flujo de Datos (T=10250000):
#         Col0               Col1               Col2               Col3
# Fila          0:  in:xxxx/out:xxxx  in:xxxx/out:xxxx  in:xxxx/out:xxxx  in:xxxx/out:0000
# Fila          1:  in:xxxx/out:xxxx  in:xxxx/out:xxxx  in:xxxx/out:0000  in:0000/out:0000
# Fila          2:  in:xxxx/out:xxxx  in:xxxx/out:0000  in:0000/out:0000  in:0000/out:0000
# Fila          3:  in:xxxx/out:0000  in:0000/out:0000  in:0000/out:0000  in:0000/out:0000
# 
# Resultados Acumulados (T=10250000):
# PE(3,0) = 0000000000 (dec 0)
# PE(3,1) = 0000000000 (dec 0)
# PE(3,2) = 0000000000 (dec 0)
# PE(3,3) = 0000000000 (dec 0)
# 
# Flujo de Datos (T=10750000):
#         Col0               Col1               Col2               Col3
# Fila          0:  in:xxxx/out:xxxx  in:xxxx/out:xxxx  in:xxxx/out:xxxx  in:xxxx/out:xxxx
# Fila          1:  in:xxxx/out:xxxx  in:xxxx/out:xxxx  in:xxxx/out:xxxx  in:xxxx/out:0000
# Fila          2:  in:xxxx/out:xxxx  in:xxxx/out:xxxx  in:xxxx/out:0000  in:0000/out:0000
# Fila          3:  in:xxxx/out:xxxx  in:xxxx/out:0000  in:0000/out:0000  in:0000/out:0000
# 
# Resultados Acumulados (T=10750000):
# PE(3,0) = xxxxxxxxxx (dec x)
# PE(3,1) = 0000000000 (dec 0)
# PE(3,2) = 0000000000 (dec 0)
# PE(3,3) = 0000000000 (dec 0)
# 
# Flujo de Datos (T=11250000):
#         Col0               Col1               Col2               Col3
# Fila          0:  in:xxxx/out:xxxx  in:xxxx/out:xxxx  in:xxxx/out:xxxx  in:xxxx/out:xxxx
# Fila          1:  in:xxxx/out:xxxx  in:xxxx/out:xxxx  in:xxxx/out:xxxx  in:xxxx/out:xxxx
# Fila          2:  in:xxxx/out:xxxx  in:xxxx/out:xxxx  in:xxxx/out:xxxx  in:xxxx/out:0000
# Fila          3:  in:xxxx/out:xxxx  in:xxxx/out:xxxx  in:xxxx/out:0000  in:0000/out:0000
# 
# Resultados Acumulados (T=11250000):
# PE(3,0) = xxxxxxxxxx (dec x)
# PE(3,1) = xxxxxxxxxx (dec x)
# PE(3,2) = 0000000000 (dec 0)
# PE(3,3) = 0000000000 (dec 0)
# 
# Flujo de Datos (T=11750000):
#         Col0               Col1               Col2               Col3
# Fila          0:  in:xxxx/out:xxxx  in:xxxx/out:xxxx  in:xxxx/out:xxxx  in:xxxx/out:xxxx
# Fila          1:  in:xxxx/out:xxxx  in:xxxx/out:xxxx  in:xxxx/out:xxxx  in:xxxx/out:xxxx
# Fila          2:  in:xxxx/out:xxxx  in:xxxx/out:xxxx  in:xxxx/out:xxxx  in:xxxx/out:xxxx
# Fila          3:  in:xxxx/out:xxxx  in:xxxx/out:xxxx  in:xxxx/out:xxxx  in:xxxx/out:0000
# 
# Resultados Acumulados (T=11750000):
# PE(3,0) = xxxxxxxxxx (dec x)
# PE(3,1) = xxxxxxxxxx (dec x)
# PE(3,2) = xxxxxxxxxx (dec x)
# PE(3,3) = 0000000000 (dec 0)
# 
# Flujo de Datos (T=12250000):
#         Col0               Col1               Col2               Col3
# Fila          0:  in:xxxx/out:xxxx  in:xxxx/out:xxxx  in:xxxx/out:xxxx  in:xxxx/out:xxxx
# Fila          1:  in:xxxx/out:xxxx  in:xxxx/out:xxxx  in:xxxx/out:xxxx  in:xxxx/out:xxxx
# Fila          2:  in:xxxx/out:xxxx  in:xxxx/out:xxxx  in:xxxx/out:xxxx  in:xxxx/out:xxxx
# Fila          3:  in:xxxx/out:xxxx  in:xxxx/out:xxxx  in:xxxx/out:xxxx  in:xxxx/out:xxxx
# 
# Resultados Acumulados (T=12250000):
# PE(3,0) = xxxxxxxxxx (dec x)
# PE(3,1) = xxxxxxxxxx (dec x)
# PE(3,2) = xxxxxxxxxx (dec x)
# PE(3,3) = xxxxxxxxxx (dec x)
# 
# Flujo de Datos (T=12750000):
#         Col0               Col1               Col2               Col3
# Fila          0:  in:xxxx/out:xxxx  in:xxxx/out:xxxx  in:xxxx/out:xxxx  in:xxxx/out:xxxx
# Fila          1:  in:xxxx/out:xxxx  in:xxxx/out:xxxx  in:xxxx/out:xxxx  in:xxxx/out:xxxx
# Fila          2:  in:xxxx/out:xxxx  in:xxxx/out:xxxx  in:xxxx/out:xxxx  in:xxxx/out:xxxx
# Fila          3:  in:xxxx/out:xxxx  in:xxxx/out:xxxx  in:xxxx/out:xxxx  in:xxxx/out:xxxx
# 
# Resultados Acumulados (T=12750000):
# PE(3,0) = xxxxxxxxxx (dec x)
# PE(3,1) = xxxxxxxxxx (dec x)
# PE(3,2) = xxxxxxxxxx (dec x)
# PE(3,3) = xxxxxxxxxx (dec x)
# 
# Flujo de Datos (T=13250000):
#         Col0               Col1               Col2               Col3
# Fila          0:  in:xxxx/out:xxxx  in:xxxx/out:xxxx  in:xxxx/out:xxxx  in:xxxx/out:xxxx
# Fila          1:  in:xxxx/out:xxxx  in:xxxx/out:xxxx  in:xxxx/out:xxxx  in:xxxx/out:xxxx
# Fila          2:  in:xxxx/out:xxxx  in:xxxx/out:xxxx  in:xxxx/out:xxxx  in:xxxx/out:xxxx
# Fila          3:  in:xxxx/out:xxxx  in:xxxx/out:xxxx  in:xxxx/out:xxxx  in:xxxx/out:xxxx
# 
# Resultados Acumulados (T=13250000):
# PE(3,0) = xxxxxxxxxx (dec x)
# PE(3,1) = xxxxxxxxxx (dec x)
# PE(3,2) = xxxxxxxxxx (dec x)
# PE(3,3) = xxxxxxxxxx (dec x)
# 
# === RESULTADOS FINALES ===
# 
# Resultados Acumulados (T=13250000):
# PE(3,0) = xxxxxxxxxx (dec x)
# PE(3,1) = xxxxxxxxxx (dec x)
# PE(3,2) = xxxxxxxxxx (dec x)
# PE(3,3) = xxxxxxxxxx (dec x)
# TEST FALLADO: Resultados incorrectos
# ** Note: $finish    : C:/Users/Daniel/Desktop/Arqui2ProyectoRepositorio/Systolic_Array_GaussianFilter/SystemVerilogBrightness/MMU_diagonalzeros_tb.sv(265)
#    Time: 13250 ns  Iteration: 1  Instance: /MMU_diagonalzeros_tb
# 1
# Break in Module MMU_diagonalzeros_tb at C:/Users/Daniel/Desktop/Arqui2ProyectoRepositorio/Systolic_Array_GaussianFilter/SystemVerilogBrightness/MMU_diagonalzeros_tb.sv line 265
# End time: 22:43:06 on Jun 20,2025, Elapsed time: 0:12:09
# Errors: 0, Warnings: 6
