SystemVerilogBrightness/simulation/modelsim/msim_transcript
# Reading pref.tcl
# do BrightnessFilter_run_msim_rtl_verilog.do
# if {[file exists rtl_work]} {
# 	vdel -lib rtl_work -all
# }
# vlib rtl_work
# vmap work rtl_work
# Model Technology ModelSim - Intel FPGA Edition vmap 2020.1 Lib Mapping Utility 2020.02 Feb 28 2020
# vmap work rtl_work 
# Copying C:/intelFPGA_lite/20.1/modelsim_ase/win32aloem/../modelsim.ini to modelsim.ini
# Modifying modelsim.ini
# 
# vlog -sv -work work +incdir+C:/Users/Daniel/Desktop/Arqui2ProyectoRepositorio/Systolic_Array_GaussianFilter/SystemVerilogBrightness {C:/Users/Daniel/Desktop/Arqui2ProyectoRepositorio/Systolic_Array_GaussianFilter/SystemVerilogBrightness/TPU.sv}
# Model Technology ModelSim - Intel FPGA Edition vlog 2020.1 Compiler 2020.02 Feb 28 2020
# Start time: 20:50:16 on Jun 13,2025
# vlog -reportprogress 300 -sv -work work "+incdir+C:/Users/Daniel/Desktop/Arqui2ProyectoRepositorio/Systolic_Array_GaussianFilter/SystemVerilogBrightness" C:/Users/Daniel/Desktop/Arqui2ProyectoRepositorio/Systolic_Array_GaussianFilter/SystemVerilogBrightness/TPU.sv 
# -- Compiling module TPU
# 
# Top level modules:
# 	TPU
# End time: 20:50:16 on Jun 13,2025, Elapsed time: 0:00:00
# Errors: 0, Warnings: 0
# vlog -sv -work work +incdir+C:/Users/Daniel/Desktop/Arqui2ProyectoRepositorio/Systolic_Array_GaussianFilter/SystemVerilogBrightness {C:/Users/Daniel/Desktop/Arqui2ProyectoRepositorio/Systolic_Array_GaussianFilter/SystemVerilogBrightness/MAC_module.sv}
# Model Technology ModelSim - Intel FPGA Edition vlog 2020.1 Compiler 2020.02 Feb 28 2020
# Start time: 20:50:16 on Jun 13,2025
# vlog -reportprogress 300 -sv -work work "+incdir+C:/Users/Daniel/Desktop/Arqui2ProyectoRepositorio/Systolic_Array_GaussianFilter/SystemVerilogBrightness" C:/Users/Daniel/Desktop/Arqui2ProyectoRepositorio/Systolic_Array_GaussianFilter/SystemVerilogBrightness/MAC_module.sv 
# -- Compiling module MAC
# 
# Top level modules:
# 	MAC
# End time: 20:50:16 on Jun 13,2025, Elapsed time: 0:00:00
# Errors: 0, Warnings: 0
# 
# vlog -sv -work work +incdir+C:/Users/Daniel/Desktop/Arqui2ProyectoRepositorio/Systolic_Array_GaussianFilter/SystemVerilogBrightness {C:/Users/Daniel/Desktop/Arqui2ProyectoRepositorio/Systolic_Array_GaussianFilter/SystemVerilogBrightness/MMU_tb.sv}
# Model Technology ModelSim - Intel FPGA Edition vlog 2020.1 Compiler 2020.02 Feb 28 2020
# Start time: 20:50:17 on Jun 13,2025
# vlog -reportprogress 300 -sv -work work "+incdir+C:/Users/Daniel/Desktop/Arqui2ProyectoRepositorio/Systolic_Array_GaussianFilter/SystemVerilogBrightness" C:/Users/Daniel/Desktop/Arqui2ProyectoRepositorio/Systolic_Array_GaussianFilter/SystemVerilogBrightness/MMU_tb.sv 
# -- Compiling module MMU_tb
# 
# Top level modules:
# 	MMU_tb
# End time: 20:50:17 on Jun 13,2025, Elapsed time: 0:00:00
# Errors: 0, Warnings: 0
# 
# vsim -t 1ps -L altera_ver -L lpm_ver -L sgate_ver -L altera_mf_ver -L altera_lnsim_ver -L cyclonev_ver -L cyclonev_hssi_ver -L cyclonev_pcie_hip_ver -L rtl_work -L work -voptargs="+acc"  MMU_tb
# vsim -t 1ps -L altera_ver -L lpm_ver -L sgate_ver -L altera_mf_ver -L altera_lnsim_ver -L cyclonev_ver -L cyclonev_hssi_ver -L cyclonev_pcie_hip_ver -L rtl_work -L work -voptargs=""+acc"" MMU_tb 
# Start time: 20:50:17 on Jun 13,2025
# Loading sv_std.std
# Loading work.MMU_tb
# Loading work.TPU
# Loading work.MAC
# 
# add wave *
# view structure
# .main_pane.structure.interior.cs.body.struct
# view signals
# .main_pane.objects.interior.cs.body.tree
# run -all
# 
# LOAD PROCESS STARTED:
# T0:
# 
# Pesos en los PEs:
#         Col0  Col1  Col2  Col3
# Fila          0:  xx    xx    xx    xx
# Fila          1:  xx    xx    xx    xx
# Fila          2:  xx    xx    xx    xx
# Fila          3:  xx    xx    xx    xx
# T1:
# 
# Pesos en los PEs:
#         Col0  Col1  Col2  Col3
# Fila          0:  xx    xx    xx    xx
# Fila          1:  xx    xx    xx    xx
# Fila          2:  xx    xx    xx    xx
# Fila          3:  xx    xx    xx    xx
# T2:
# 
# Pesos en los PEs:
#         Col0  Col1  Col2  Col3
# Fila          0:  00    00    00    01
# Fila          1:  xx    xx    xx    xx
# Fila          2:  xx    xx    xx    xx
# Fila          3:  xx    xx    xx    xx
# T3 FINISHED LOAD:
# 
# Pesos en los PEs:
#         Col0  Col1  Col2  Col3
# Fila          0:  00    00    01    00
# Fila          1:  00    00    00    01
# Fila          2:  xx    xx    xx    xx
# Fila          3:  xx    xx    xx    xx
# T4
# 
# Pesos en los PEs:
#         Col0  Col1  Col2  Col3
# Fila          0:  00    01    00    00
# Fila          1:  00    00    01    00
# Fila          2:  00    00    00    01
# Fila          3:  xx    xx    xx    xx
# T5 Fully loaded:
# 
# Pesos en los PEs:
#         Col0  Col1  Col2  Col3
# Fila          0:  01    00    00    00
# Fila          1:  00    01    00    00
# Fila          2:  00    00    01    00
# Fila          3:  00    00    00    01
# 
# Resultados:
# PE(3,0) = 0xxxxxxx (x)
# PE(3,1) = 0xxxxxxx (x)
# PE(3,2) = 0xxxxxxx (x)
# PE(3,3) = 0xxxxxxx (x)
# 
# Pesos en los PEs:
#         Col0  Col1  Col2  Col3
# Fila          0:  01    00    00    00
# Fila          1:  00    01    00    00
# Fila          2:  00    00    01    00
# Fila          3:  00    00    00    01
# 
# Datos en los PEs (Ciclo 5):
#         Col0     Col1     Col2     Col3
# Fila          0:  in:xx/out:xx  in:xx/out:xx  in:xx/out:xx  in:xx/out:xx
# Fila          1:  in:xx/out:xx  in:xx/out:xx  in:xx/out:xx  in:xx/out:xx
# Fila          2:  in:xx/out:xx  in:xx/out:xx  in:xx/out:xx  in:xx/out:xx
# Fila          3:  in:xx/out:xx  in:xx/out:xx  in:xx/out:xx  in:xx/out:xx
# 
# Resultados:
# PE(3,0) = 0xxxxxxx (x)
# PE(3,1) = 0xxxxxxx (x)
# PE(3,2) = 0xxxxxxx (x)
# PE(3,3) = 0xxxxxxx (x)
# 
# Pesos en los PEs:
#         Col0  Col1  Col2  Col3
# Fila          0:  01    00    00    00
# Fila          1:  00    01    00    00
# Fila          2:  00    00    01    00
# Fila          3:  00    00    00    01
# 
# Datos en los PEs (Ciclo 6):
#         Col0     Col1     Col2     Col3
# Fila          0:  in:00/out:xx  in:xx/out:xx  in:xx/out:xx  in:xx/out:xx
# Fila          1:  in:xx/out:xx  in:xx/out:xx  in:xx/out:xx  in:xx/out:xx
# Fila          2:  in:xx/out:xx  in:xx/out:xx  in:xx/out:xx  in:xx/out:xx
# Fila          3:  in:xx/out:xx  in:xx/out:xx  in:xx/out:xx  in:xx/out:xx
# 
# Resultados:
# PE(3,0) = 0xxxxxxx (x)
# PE(3,1) = 0xxxxxxx (x)
# PE(3,2) = 0xxxxxxx (x)
# PE(3,3) = 0xxxxxxx (x)
# 
# Pesos en los PEs:
#         Col0  Col1  Col2  Col3
# Fila          0:  01    00    00    00
# Fila          1:  00    01    00    00
# Fila          2:  00    00    01    00
# Fila          3:  00    00    00    01
# 
# Datos en los PEs (Ciclo 7):
#         Col0     Col1     Col2     Col3
# Fila          0:  in:01/out:00  in:00/out:xx  in:xx/out:xx  in:xx/out:xx
# Fila          1:  in:04/out:xx  in:xx/out:xx  in:xx/out:xx  in:xx/out:xx
# Fila          2:  in:xx/out:xx  in:xx/out:xx  in:xx/out:xx  in:xx/out:xx
# Fila          3:  in:xx/out:xx  in:xx/out:xx  in:xx/out:xx  in:xx/out:xx
# 
# Resultados:
# PE(3,0) = 0xxxxxxx (x)
# PE(3,1) = 0xxxxxxx (x)
# PE(3,2) = 0xxxxxxx (x)
# PE(3,3) = 0xxxxxxx (x)
# 
# Pesos en los PEs:
#         Col0  Col1  Col2  Col3
# Fila          0:  01    00    00    00
# Fila          1:  00    01    00    00
# Fila          2:  00    00    01    00
# Fila          3:  00    00    00    01
# 
# Datos en los PEs (Ciclo 8):
#         Col0     Col1     Col2     Col3
# Fila          0:  in:02/out:01  in:01/out:00  in:00/out:xx  in:xx/out:xx
# Fila          1:  in:05/out:04  in:04/out:xx  in:xx/out:xx  in:xx/out:xx
# Fila          2:  in:08/out:xx  in:xx/out:xx  in:xx/out:xx  in:xx/out:xx
# Fila          3:  in:xx/out:xx  in:xx/out:xx  in:xx/out:xx  in:xx/out:xx
# 
# Resultados:
# PE(3,0) = 0xxxxxxx (x)
# PE(3,1) = 0xxxxxxx (x)
# PE(3,2) = 0xxxxxxx (x)
# PE(3,3) = 0xxxxxxx (x)
# 
# Pesos en los PEs:
#         Col0  Col1  Col2  Col3
# Fila          0:  01    00    00    00
# Fila          1:  00    01    00    00
# Fila          2:  00    00    01    00
# Fila          3:  00    00    00    01
# 
# Datos en los PEs (Ciclo 9):
#         Col0     Col1     Col2     Col3
# Fila          0:  in:03/out:02  in:02/out:01  in:01/out:00  in:00/out:xx
# Fila          1:  in:06/out:05  in:05/out:04  in:04/out:xx  in:xx/out:xx
# Fila          2:  in:09/out:08  in:08/out:xx  in:xx/out:xx  in:xx/out:xx
# Fila          3:  in:0c/out:xx  in:xx/out:xx  in:xx/out:xx  in:xx/out:xx
# 
# Resultados:
# PE(3,0) = 0x000000 (0)
# PE(3,1) = 0xxxxxxx (x)
# PE(3,2) = 0xxxxxxx (x)
# PE(3,3) = 0xxxxxxx (x)
# 
# Pesos en los PEs:
#         Col0  Col1  Col2  Col3
# Fila          0:  01    00    00    00
# Fila          1:  00    01    00    00
# Fila          2:  00    00    01    00
# Fila          3:  00    00    00    01
# 
# Datos en los PEs (Ciclo 10):
#         Col0     Col1     Col2     Col3
# Fila          0:  in:xx/out:03  in:03/out:02  in:02/out:01  in:01/out:00
# Fila          1:  in:07/out:06  in:06/out:05  in:05/out:04  in:04/out:xx
# Fila          2:  in:0a/out:09  in:09/out:08  in:08/out:xx  in:xx/out:xx
# Fila          3:  in:0d/out:0c  in:0c/out:xx  in:xx/out:xx  in:xx/out:xx
# 
# Resultados:
# PE(3,0) = 0x000001 (1)
# PE(3,1) = 0x000004 (4)
# PE(3,2) = 0xxxxxxx (x)
# PE(3,3) = 0xxxxxxx (x)
# 
# Pesos en los PEs:
#         Col0  Col1  Col2  Col3
# Fila          0:  01    00    00    00
# Fila          1:  00    01    00    00
# Fila          2:  00    00    01    00
# Fila          3:  00    00    00    01
# 
# Datos en los PEs (Ciclo 11):
#         Col0     Col1     Col2     Col3
# Fila          0:  in:xx/out:xx  in:xx/out:03  in:03/out:02  in:02/out:01
# Fila          1:  in:xx/out:07  in:07/out:06  in:06/out:05  in:05/out:04
# Fila          2:  in:0b/out:0a  in:0a/out:09  in:09/out:xx  in:08/out:xx
# Fila          3:  in:0e/out:0d  in:0d/out:0c  in:0c/out:xx  in:xx/out:xx
# 
# Resultados:
# PE(3,0) = 0x000002 (2)
# PE(3,1) = 0x000005 (5)
# PE(3,2) = 0x000008 (8)
# PE(3,3) = 0xxxxxxx (x)
# 
# Pesos en los PEs:
#         Col0  Col1  Col2  Col3
# Fila          0:  01    00    00    00
# Fila          1:  00    01    00    00
# Fila          2:  00    00    01    00
# Fila          3:  00    00    00    01
# 
# Datos en los PEs (Ciclo 12):
#         Col0     Col1     Col2     Col3
# Fila          0:  in:xx/out:xx  in:xx/out:xx  in:xx/out:03  in:03/out:02
# Fila          1:  in:xx/out:xx  in:xx/out:07  in:07/out:06  in:06/out:05
# Fila          2:  in:xx/out:0b  in:0b/out:0a  in:0a/out:0c  in:09/out:xx
# Fila          3:  in:0f/out:0e  in:0e/out:0d  in:0d/out:0c  in:0c/out:xx
# T9
# 
# Resultados:
# PE(3,0) = 0xxxxxxx (x)
# PE(3,1) = 0x000007 (7)
# PE(3,2) = 0x00000a (10)
# PE(3,3) = 0x00000d (13)
# 
# Datos en los PEs (Ciclo 14):
#         Col0     Col1     Col2     Col3
# Fila          0:  in:xx/out:xx  in:xx/out:xx  in:xx/out:xx  in:xx/out:xx
# Fila          1:  in:xx/out:xx  in:xx/out:xx  in:xx/out:xx  in:xx/out:07
# Fila          2:  in:xx/out:xx  in:xx/out:xx  in:xx/out:0e  in:0b/out:0d
# Fila          3:  in:xx/out:xx  in:xx/out:0f  in:0f/out:0e  in:0e/out:0d
# T10
# 
# Resultados:
# PE(3,0) = 0xxxxxxx (x)
# PE(3,1) = 0xxxxxxx (x)
# PE(3,2) = 0x00000b (11)
# PE(3,3) = 0x00000e (14)
# 
# Datos en los PEs (Ciclo 15):
#         Col0     Col1     Col2     Col3
# Fila          0:  in:xx/out:xx  in:xx/out:xx  in:xx/out:xx  in:xx/out:xx
# Fila          1:  in:xx/out:xx  in:xx/out:xx  in:xx/out:xx  in:xx/out:xx
# Fila          2:  in:xx/out:xx  in:xx/out:xx  in:xx/out:0f  in:xx/out:0e
# Fila          3:  in:xx/out:xx  in:xx/out:xx  in:xx/out:0f  in:0f/out:0e
# T11
# 
# Resultados:
# PE(3,0) = 0xxxxxxx (x)
# PE(3,1) = 0xxxxxxx (x)
# PE(3,2) = 0xxxxxxx (x)
# PE(3,3) = 0x00000f (15)
# 
# Datos en los PEs (Ciclo 16):
#         Col0     Col1     Col2     Col3
# Fila          0:  in:xx/out:xx  in:xx/out:xx  in:xx/out:xx  in:xx/out:xx
# Fila          1:  in:xx/out:xx  in:xx/out:xx  in:xx/out:xx  in:xx/out:xx
# Fila          2:  in:xx/out:xx  in:xx/out:xx  in:xx/out:xx  in:xx/out:0f
# Fila          3:  in:xx/out:xx  in:xx/out:xx  in:xx/out:xx  in:xx/out:0f
# T12
# 
# Resultados:
# PE(3,0) = 0xxxxxxx (x)
# PE(3,1) = 0xxxxxxx (x)
# PE(3,2) = 0xxxxxxx (x)
# PE(3,3) = 0xxxxxxx (x)
# 
# Datos en los PEs (Ciclo 17):
#         Col0     Col1     Col2     Col3
# Fila          0:  in:xx/out:xx  in:xx/out:xx  in:xx/out:xx  in:xx/out:xx
# Fila          1:  in:xx/out:xx  in:xx/out:xx  in:xx/out:xx  in:xx/out:xx
# Fila          2:  in:xx/out:xx  in:xx/out:xx  in:xx/out:xx  in:xx/out:xx
# Fila          3:  in:xx/out:xx  in:xx/out:xx  in:xx/out:xx  in:xx/out:xx
# T13
# 
# Resultados:
# PE(3,0) = 0xxxxxxx (x)
# PE(3,1) = 0xxxxxxx (x)
# PE(3,2) = 0xxxxxxx (x)
# PE(3,3) = 0xxxxxxx (x)
# 
# Datos en los PEs (Ciclo 18):
#         Col0     Col1     Col2     Col3
# Fila          0:  in:xx/out:xx  in:xx/out:xx  in:xx/out:xx  in:xx/out:xx
# Fila          1:  in:xx/out:xx  in:xx/out:xx  in:xx/out:xx  in:xx/out:xx
# Fila          2:  in:xx/out:xx  in:xx/out:xx  in:xx/out:xx  in:xx/out:xx
# Fila          3:  in:xx/out:xx  in:xx/out:xx  in:xx/out:xx  in:xx/out:xx
# T14
# 
# Resultados:
# PE(3,0) = 0xxxxxxx (x)
# PE(3,1) = 0xxxxxxx (x)
# PE(3,2) = 0xxxxxxx (x)
# PE(3,3) = 0xxxxxxx (x)
# 
# Datos en los PEs (Ciclo 19):
#         Col0     Col1     Col2     Col3
# Fila          0:  in:xx/out:xx  in:xx/out:xx  in:xx/out:xx  in:xx/out:xx
# Fila          1:  in:xx/out:xx  in:xx/out:xx  in:xx/out:xx  in:xx/out:xx
# Fila          2:  in:xx/out:xx  in:xx/out:xx  in:xx/out:xx  in:xx/out:xx
# Fila          3:  in:xx/out:xx  in:xx/out:xx  in:xx/out:xx  in:xx/out:xx
# T15
# 
# Resultados:
# PE(3,0) = 0xxxxxxx (x)
# PE(3,1) = 0xxxxxxx (x)
# PE(3,2) = 0xxxxxxx (x)
# PE(3,3) = 0xxxxxxx (x)
# 
# Datos en los PEs (Ciclo 20):
#         Col0     Col1     Col2     Col3
# Fila          0:  in:xx/out:xx  in:xx/out:xx  in:xx/out:xx  in:xx/out:xx
# Fila          1:  in:xx/out:xx  in:xx/out:xx  in:xx/out:xx  in:xx/out:xx
# Fila          2:  in:xx/out:xx  in:xx/out:xx  in:xx/out:xx  in:xx/out:xx
# Fila          3:  in:xx/out:xx  in:xx/out:xx  in:xx/out:xx  in:xx/out:xx
# T16 FINISHED ALL
# 
# Resultados:
# PE(3,0) = 0xxxxxxx (x)
# PE(3,1) = 0xxxxxxx (x)
# PE(3,2) = 0xxxxxxx (x)
# PE(3,3) = 0xxxxxxx (x)
# 
# Datos en los PEs (Ciclo 21):
#         Col0     Col1     Col2     Col3
# Fila          0:  in:xx/out:xx  in:xx/out:xx  in:xx/out:xx  in:xx/out:xx
# Fila          1:  in:xx/out:xx  in:xx/out:xx  in:xx/out:xx  in:xx/out:xx
# Fila          2:  in:xx/out:xx  in:xx/out:xx  in:xx/out:xx  in:xx/out:xx
# Fila          3:  in:xx/out:xx  in:xx/out:xx  in:xx/out:xx  in:xx/out:xx
# T26 FINISHED ALL
# 
# Resultados:
# PE(3,0) = 0xxxxxxx (x)
# PE(3,1) = 0xxxxxxx (x)
# PE(3,2) = 0xxxxxxx (x)
# PE(3,3) = 0xxxxxxx (x)
# 
# Pesos en los PEs:
#         Col0  Col1  Col2  Col3
# Fila          0:  01    00    00    00
# Fila          1:  00    01    00    00
# Fila          2:  00    00    01    00
# Fila          3:  00    00    00    01
# ** Note: $finish    : C:/Users/Daniel/Desktop/Arqui2ProyectoRepositorio/Systolic_Array_GaussianFilter/SystemVerilogBrightness/MMU_tb.sv(366)
#    Time: 15750 ns  Iteration: 1  Instance: /MMU_tb
# 1
# Break in Module MMU_tb at C:/Users/Daniel/Desktop/Arqui2ProyectoRepositorio/Systolic_Array_GaussianFilter/SystemVerilogBrightness/MMU_tb.sv line 366
# End time: 21:18:48 on Jun 13,2025, Elapsed time: 0:28:31
# Errors: 0, Warnings: 0
