SystemVerilogBrightness/simulation/modelsim/msim_transcript
# Reading pref.tcl
# do BrightnessFilter_run_msim_rtl_verilog.do
# if {[file exists rtl_work]} {
# 	vdel -lib rtl_work -all
# }
# vlib rtl_work
# vmap work rtl_work
# Model Technology ModelSim - Intel FPGA Edition vmap 2020.1 Lib Mapping Utility 2020.02 Feb 28 2020
# vmap work rtl_work 
# Copying C:/intelFPGA_lite/20.1/modelsim_ase/win32aloem/../modelsim.ini to modelsim.ini
# Modifying modelsim.ini
# 
# vlog -sv -work work +incdir+C:/Users/Daniel/Desktop/Arqui2ProyectoRepositorio/Systolic_Array_GaussianFilter/SystemVerilogBrightness {C:/Users/Daniel/Desktop/Arqui2ProyectoRepositorio/Systolic_Array_GaussianFilter/SystemVerilogBrightness/TPU.sv}
# Model Technology ModelSim - Intel FPGA Edition vlog 2020.1 Compiler 2020.02 Feb 28 2020
# Start time: 22:44:55 on Jun 15,2025
# vlog -reportprogress 300 -sv -work work "+incdir+C:/Users/Daniel/Desktop/Arqui2ProyectoRepositorio/Systolic_Array_GaussianFilter/SystemVerilogBrightness" C:/Users/Daniel/Desktop/Arqui2ProyectoRepositorio/Systolic_Array_GaussianFilter/SystemVerilogBrightness/TPU.sv 
# -- Compiling module TPU
# 
# Top level modules:
# 	TPU
# End time: 22:44:55 on Jun 15,2025, Elapsed time: 0:00:00
# Errors: 0, Warnings: 0
# vlog -sv -work work +incdir+C:/Users/Daniel/Desktop/Arqui2ProyectoRepositorio/Systolic_Array_GaussianFilter/SystemVerilogBrightness {C:/Users/Daniel/Desktop/Arqui2ProyectoRepositorio/Systolic_Array_GaussianFilter/SystemVerilogBrightness/MAC_module.sv}
# Model Technology ModelSim - Intel FPGA Edition vlog 2020.1 Compiler 2020.02 Feb 28 2020
# Start time: 22:44:55 on Jun 15,2025
# vlog -reportprogress 300 -sv -work work "+incdir+C:/Users/Daniel/Desktop/Arqui2ProyectoRepositorio/Systolic_Array_GaussianFilter/SystemVerilogBrightness" C:/Users/Daniel/Desktop/Arqui2ProyectoRepositorio/Systolic_Array_GaussianFilter/SystemVerilogBrightness/MAC_module.sv 
# -- Compiling module MAC
# 
# Top level modules:
# 	MAC
# End time: 22:44:55 on Jun 15,2025, Elapsed time: 0:00:00
# Errors: 0, Warnings: 0
# vlog -sv -work work +incdir+C:/Users/Daniel/Desktop/Arqui2ProyectoRepositorio/Systolic_Array_GaussianFilter/SystemVerilogBrightness {C:/Users/Daniel/Desktop/Arqui2ProyectoRepositorio/Systolic_Array_GaussianFilter/SystemVerilogBrightness/Normalizer.sv}
# Model Technology ModelSim - Intel FPGA Edition vlog 2020.1 Compiler 2020.02 Feb 28 2020
# Start time: 22:44:55 on Jun 15,2025
# vlog -reportprogress 300 -sv -work work "+incdir+C:/Users/Daniel/Desktop/Arqui2ProyectoRepositorio/Systolic_Array_GaussianFilter/SystemVerilogBrightness" C:/Users/Daniel/Desktop/Arqui2ProyectoRepositorio/Systolic_Array_GaussianFilter/SystemVerilogBrightness/Normalizer.sv 
# -- Compiling module Normalizer
# 
# Top level modules:
# 	Normalizer
# End time: 22:44:55 on Jun 15,2025, Elapsed time: 0:00:00
# Errors: 0, Warnings: 0
# 
# vlog -sv -work work +incdir+C:/Users/Daniel/Desktop/Arqui2ProyectoRepositorio/Systolic_Array_GaussianFilter/SystemVerilogBrightness {C:/Users/Daniel/Desktop/Arqui2ProyectoRepositorio/Systolic_Array_GaussianFilter/SystemVerilogBrightness/MMU_tb.sv}
# Model Technology ModelSim - Intel FPGA Edition vlog 2020.1 Compiler 2020.02 Feb 28 2020
# Start time: 22:44:55 on Jun 15,2025
# vlog -reportprogress 300 -sv -work work "+incdir+C:/Users/Daniel/Desktop/Arqui2ProyectoRepositorio/Systolic_Array_GaussianFilter/SystemVerilogBrightness" C:/Users/Daniel/Desktop/Arqui2ProyectoRepositorio/Systolic_Array_GaussianFilter/SystemVerilogBrightness/MMU_tb.sv 
# -- Compiling module MMU_tb
# 
# Top level modules:
# 	MMU_tb
# End time: 22:44:55 on Jun 15,2025, Elapsed time: 0:00:00
# Errors: 0, Warnings: 0
# 
# vsim -t 1ps -L altera_ver -L lpm_ver -L sgate_ver -L altera_mf_ver -L altera_lnsim_ver -L cyclonev_ver -L cyclonev_hssi_ver -L cyclonev_pcie_hip_ver -L rtl_work -L work -voptargs="+acc"  MMU_tb
# vsim -t 1ps -L altera_ver -L lpm_ver -L sgate_ver -L altera_mf_ver -L altera_lnsim_ver -L cyclonev_ver -L cyclonev_hssi_ver -L cyclonev_pcie_hip_ver -L rtl_work -L work -voptargs=""+acc"" MMU_tb 
# Start time: 22:44:55 on Jun 15,2025
# Loading sv_std.std
# Loading work.MMU_tb
# Loading work.TPU
# Loading work.Normalizer
# Loading work.MAC
# 
# add wave *
# view structure
# .main_pane.structure.interior.cs.body.struct
# view signals
# .main_pane.objects.interior.cs.body.tree
# run -all
# 
# === FASE 1: CARGA DE PESOS ===
# 
# Pesos en los PEs (T=750000):
#         Col0        Col1        Col2        Col3
# Fila          0:  xxxx        xxxx        xxxx        xxxx
# Fila          1:  xxxx        xxxx        xxxx        xxxx
# Fila          2:  xxxx        xxxx        xxxx        xxxx
# Fila          3:  xxxx        xxxx        xxxx        xxxx
# 
# Pesos en los PEs (T=1250000):
#         Col0        Col1        Col2        Col3
# Fila          0:  0000        0000        0000        0000
# Fila          1:  xxxx        xxxx        xxxx        xxxx
# Fila          2:  xxxx        xxxx        xxxx        xxxx
# Fila          3:  xxxx        xxxx        xxxx        xxxx
# 
# Pesos en los PEs (T=1750000):
#         Col0        Col1        Col2        Col3
# Fila          0:  0000        0000        0000        0001
# Fila          1:  0000        0000        0000        0000
# Fila          2:  xxxx        xxxx        xxxx        xxxx
# Fila          3:  xxxx        xxxx        xxxx        xxxx
# 
# Pesos en los PEs (T=2250000):
#         Col0        Col1        Col2        Col3
# Fila          0:  0000        0000        0001        0000
# Fila          1:  0000        0000        0000        0001
# Fila          2:  0000        0000        0000        0000
# Fila          3:  xxxx        xxxx        xxxx        xxxx
# 
# Pesos finales cargados:
# 
# Pesos en los PEs (T=3250000):
#         Col0        Col1        Col2        Col3
# Fila          0:  0001        0000        0000        0000
# Fila          1:  0000        0001        0000        0000
# Fila          2:  0000        0000        0001        0000
# Fila          3:  0000        0000        0000        0001
# 
# === FASE 2: CARGA DE DATOS (PATRÓN DIAGONAL) ===
# 
# Pesos en los PEs (T=3250000):
#         Col0        Col1        Col2        Col3
# Fila          0:  0001        0000        0000        0000
# Fila          1:  0000        0001        0000        0000
# Fila          2:  0000        0000        0001        0000
# Fila          3:  0000        0000        0000        0001
# 
# Flujo de Datos (T=3750000):
#         Col0               Col1               Col2               Col3
# Fila          0:  in:0000/out:0000  in:0000/out:0000  in:0000/out:0000  in:0000/out:0000
# Fila          1:  in:0000/out:0000  in:0000/out:0000  in:0000/out:0000  in:0000/out:0000
# Fila          2:  in:0000/out:0000  in:0000/out:0000  in:0000/out:0000  in:0000/out:0000
# Fila          3:  in:0000/out:0000  in:0000/out:0000  in:0000/out:0000  in:0000/out:0000
# 
# Pesos en los PEs (T=3750000):
#         Col0        Col1        Col2        Col3
# Fila          0:  0001        0000        0000        0000
# Fila          1:  0000        0001        0000        0000
# Fila          2:  0000        0000        0001        0000
# Fila          3:  0000        0000        0000        0001
# 
# Flujo de Datos (T=4250000):
#         Col0               Col1               Col2               Col3
# Fila          0:  in:0000/out:0000  in:0000/out:0000  in:0000/out:0000  in:0000/out:0000
# Fila          1:  in:xxxx/out:0000  in:0000/out:0000  in:0000/out:0000  in:0000/out:0000
# Fila          2:  in:xxxx/out:0000  in:0000/out:0000  in:0000/out:0000  in:0000/out:0000
# Fila          3:  in:xxxx/out:0000  in:0000/out:0000  in:0000/out:0000  in:0000/out:0000
# 
# Flujo de Datos (T=4750000):
#         Col0               Col1               Col2               Col3
# Fila          0:  in:0001/out:0000  in:0000/out:0000  in:0000/out:0000  in:0000/out:0000
# Fila          1:  in:0004/out:xxxx  in:xxxx/out:0000  in:0000/out:0000  in:0000/out:0000
# Fila          2:  in:xxxx/out:xxxx  in:xxxx/out:0000  in:0000/out:0000  in:0000/out:0000
# Fila          3:  in:xxxx/out:xxxx  in:xxxx/out:0000  in:0000/out:0000  in:0000/out:0000
# 
# Flujo de Datos (T=5250000):
#         Col0               Col1               Col2               Col3
# Fila          0:  in:0002/out:0001  in:0001/out:0000  in:0000/out:0000  in:0000/out:0000
# Fila          1:  in:0005/out:0004  in:0004/out:xxxx  in:xxxx/out:0000  in:0000/out:0000
# Fila          2:  in:0008/out:xxxx  in:xxxx/out:xxxx  in:xxxx/out:0000  in:0000/out:0000
# Fila          3:  in:xxxx/out:xxxx  in:xxxx/out:xxxx  in:xxxx/out:0000  in:0000/out:0000
# 
# Flujo de Datos (T=5750000):
#         Col0               Col1               Col2               Col3
# Fila          0:  in:0003/out:0002  in:0002/out:0001  in:0001/out:0000  in:0000/out:0000
# Fila          1:  in:0006/out:0005  in:0005/out:0004  in:0004/out:xxxx  in:xxxx/out:0000
# Fila          2:  in:0009/out:0008  in:0008/out:xxxx  in:xxxx/out:xxxx  in:xxxx/out:0000
# Fila          3:  in:000c/out:xxxx  in:xxxx/out:xxxx  in:xxxx/out:xxxx  in:xxxx/out:0000
# 
# Flujo de Datos (T=6250000):
#         Col0               Col1               Col2               Col3
# Fila          0:  in:xxxx/out:0003  in:0003/out:0002  in:0002/out:0001  in:0001/out:0000
# Fila          1:  in:0007/out:0006  in:0006/out:0005  in:0005/out:0004  in:0004/out:xxxx
# Fila          2:  in:000a/out:0009  in:0009/out:0008  in:0008/out:xxxx  in:xxxx/out:xxxx
# Fila          3:  in:000d/out:000c  in:000c/out:xxxx  in:xxxx/out:xxxx  in:xxxx/out:xxxx
# 
# Flujo de Datos (T=6750000):
#         Col0               Col1               Col2               Col3
# Fila          0:  in:xxxx/out:xxxx  in:xxxx/out:0003  in:0003/out:0002  in:0002/out:0001
# Fila          1:  in:xxxx/out:0007  in:0007/out:0006  in:0006/out:0005  in:0005/out:0004
# Fila          2:  in:000b/out:000a  in:000a/out:0009  in:0009/out:0008  in:0008/out:xxxx
# Fila          3:  in:000e/out:000d  in:000d/out:000c  in:000c/out:xxxx  in:xxxx/out:xxxx
# 
# Flujo de Datos (T=7250000):
#         Col0               Col1               Col2               Col3
# Fila          0:  in:xxxx/out:xxxx  in:xxxx/out:xxxx  in:xxxx/out:0003  in:0003/out:0002
# Fila          1:  in:xxxx/out:xxxx  in:xxxx/out:0007  in:0007/out:0006  in:0006/out:0005
# Fila          2:  in:xxxx/out:000b  in:000b/out:000a  in:000a/out:0009  in:0009/out:0008
# Fila          3:  in:0100/out:000e  in:000e/out:000d  in:000d/out:000c  in:000c/out:xxxx
# 
# Resultados Acumulados (T=7250000):
# PE(3,0) = 0000000002 (dec 2)
# PE(3,1) = 0000000005 (dec 5)
# PE(3,2) = 0000000008 (dec 8)
# PE(3,3) = xxxxxxxxxx (dec x)
# 
# Flujo de Datos (T=7750000):
#         Col0               Col1               Col2               Col3
# Fila          0:  in:xxxx/out:xxxx  in:xxxx/out:xxxx  in:xxxx/out:xxxx  in:xxxx/out:0003
# Fila          1:  in:xxxx/out:xxxx  in:xxxx/out:xxxx  in:xxxx/out:0007  in:0007/out:0006
# Fila          2:  in:xxxx/out:xxxx  in:xxxx/out:000b  in:000b/out:000a  in:000a/out:0009
# Fila          3:  in:xxxx/out:0100  in:0100/out:000e  in:000e/out:000d  in:000d/out:000c
# 
# Resultados Acumulados (T=7750000):
# PE(3,0) = 0000000003 (dec 3)
# PE(3,1) = 0000000006 (dec 6)
# PE(3,2) = 0000000009 (dec 9)
# PE(3,3) = 000000000c (dec 12)
# 
# Flujo de Datos (T=8250000):
#         Col0               Col1               Col2               Col3
# Fila          0:  in:xxxx/out:xxxx  in:xxxx/out:xxxx  in:xxxx/out:xxxx  in:xxxx/out:xxxx
# Fila          1:  in:xxxx/out:xxxx  in:xxxx/out:xxxx  in:xxxx/out:xxxx  in:xxxx/out:0007
# Fila          2:  in:xxxx/out:xxxx  in:xxxx/out:xxxx  in:xxxx/out:000b  in:000b/out:000a
# Fila          3:  in:xxxx/out:xxxx  in:xxxx/out:0100  in:0100/out:000e  in:000e/out:000d
# 
# Resultados Acumulados (T=8250000):
# PE(3,0) = xxxxxxxxxx (dec x)
# PE(3,1) = 0000000007 (dec 7)
# PE(3,2) = 000000000a (dec 10)
# PE(3,3) = 000000000d (dec 13)
# 
# Flujo de Datos (T=8750000):
#         Col0               Col1               Col2               Col3
# Fila          0:  in:xxxx/out:xxxx  in:xxxx/out:xxxx  in:xxxx/out:xxxx  in:xxxx/out:xxxx
# Fila          1:  in:xxxx/out:xxxx  in:xxxx/out:xxxx  in:xxxx/out:xxxx  in:xxxx/out:xxxx
# Fila          2:  in:xxxx/out:xxxx  in:xxxx/out:xxxx  in:xxxx/out:xxxx  in:xxxx/out:000b
# Fila          3:  in:xxxx/out:xxxx  in:xxxx/out:xxxx  in:xxxx/out:0100  in:0100/out:000e
# 
# Resultados Acumulados (T=8750000):
# PE(3,0) = xxxxxxxxxx (dec x)
# PE(3,1) = xxxxxxxxxx (dec x)
# PE(3,2) = 000000000b (dec 11)
# PE(3,3) = 000000000e (dec 14)
# 
# Flujo de Datos (T=9250000):
#         Col0               Col1               Col2               Col3
# Fila          0:  in:xxxx/out:xxxx  in:xxxx/out:xxxx  in:xxxx/out:xxxx  in:xxxx/out:xxxx
# Fila          1:  in:xxxx/out:xxxx  in:xxxx/out:xxxx  in:xxxx/out:xxxx  in:xxxx/out:xxxx
# Fila          2:  in:xxxx/out:xxxx  in:xxxx/out:xxxx  in:xxxx/out:xxxx  in:xxxx/out:xxxx
# Fila          3:  in:xxxx/out:xxxx  in:xxxx/out:xxxx  in:xxxx/out:xxxx  in:xxxx/out:0100
# 
# Resultados Acumulados (T=9250000):
# PE(3,0) = xxxxxxxxxx (dec x)
# PE(3,1) = xxxxxxxxxx (dec x)
# PE(3,2) = xxxxxxxxxx (dec x)
# PE(3,3) = 0000000100 (dec 256)
# 
# Flujo de Datos (T=9750000):
#         Col0               Col1               Col2               Col3
# Fila          0:  in:xxxx/out:xxxx  in:xxxx/out:xxxx  in:xxxx/out:xxxx  in:xxxx/out:xxxx
# Fila          1:  in:xxxx/out:xxxx  in:xxxx/out:xxxx  in:xxxx/out:xxxx  in:xxxx/out:xxxx
# Fila          2:  in:xxxx/out:xxxx  in:xxxx/out:xxxx  in:xxxx/out:xxxx  in:xxxx/out:xxxx
# Fila          3:  in:xxxx/out:xxxx  in:xxxx/out:xxxx  in:xxxx/out:xxxx  in:xxxx/out:xxxx
# 
# Resultados Acumulados (T=9750000):
# PE(3,0) = xxxxxxxxxx (dec x)
# PE(3,1) = xxxxxxxxxx (dec x)
# PE(3,2) = xxxxxxxxxx (dec x)
# PE(3,3) = xxxxxxxxxx (dec x)
# 
# Flujo de Datos (T=10250000):
#         Col0               Col1               Col2               Col3
# Fila          0:  in:xxxx/out:xxxx  in:xxxx/out:xxxx  in:xxxx/out:xxxx  in:xxxx/out:xxxx
# Fila          1:  in:xxxx/out:xxxx  in:xxxx/out:xxxx  in:xxxx/out:xxxx  in:xxxx/out:xxxx
# Fila          2:  in:xxxx/out:xxxx  in:xxxx/out:xxxx  in:xxxx/out:xxxx  in:xxxx/out:xxxx
# Fila          3:  in:xxxx/out:xxxx  in:xxxx/out:xxxx  in:xxxx/out:xxxx  in:xxxx/out:xxxx
# 
# Resultados Acumulados (T=10250000):
# PE(3,0) = xxxxxxxxxx (dec x)
# PE(3,1) = xxxxxxxxxx (dec x)
# PE(3,2) = xxxxxxxxxx (dec x)
# PE(3,3) = xxxxxxxxxx (dec x)
# 
# Flujo de Datos (T=10750000):
#         Col0               Col1               Col2               Col3
# Fila          0:  in:xxxx/out:xxxx  in:xxxx/out:xxxx  in:xxxx/out:xxxx  in:xxxx/out:xxxx
# Fila          1:  in:xxxx/out:xxxx  in:xxxx/out:xxxx  in:xxxx/out:xxxx  in:xxxx/out:xxxx
# Fila          2:  in:xxxx/out:xxxx  in:xxxx/out:xxxx  in:xxxx/out:xxxx  in:xxxx/out:xxxx
# Fila          3:  in:xxxx/out:xxxx  in:xxxx/out:xxxx  in:xxxx/out:xxxx  in:xxxx/out:xxxx
# 
# Resultados Acumulados (T=10750000):
# PE(3,0) = xxxxxxxxxx (dec x)
# PE(3,1) = xxxxxxxxxx (dec x)
# PE(3,2) = xxxxxxxxxx (dec x)
# PE(3,3) = xxxxxxxxxx (dec x)
# 
# === RESULTADOS FINALES ===
# 
# Resultados Acumulados (T=10750000):
# PE(3,0) = xxxxxxxxxx (dec x)
# PE(3,1) = xxxxxxxxxx (dec x)
# PE(3,2) = xxxxxxxxxx (dec x)
# PE(3,3) = xxxxxxxxxx (dec x)
# TEST FALLADO: Resultados incorrectos
# ** Note: $finish    : C:/Users/Daniel/Desktop/Arqui2ProyectoRepositorio/Systolic_Array_GaussianFilter/SystemVerilogBrightness/MMU_tb.sv(243)
#    Time: 10750 ns  Iteration: 1  Instance: /MMU_tb
# 1
# Break in Module MMU_tb at C:/Users/Daniel/Desktop/Arqui2ProyectoRepositorio/Systolic_Array_GaussianFilter/SystemVerilogBrightness/MMU_tb.sv line 243
# End time: 22:45:17 on Jun 15,2025, Elapsed time: 0:00:22
# Errors: 0, Warnings: 0
